﻿,OmniEffectorToPivotMarker_Length,PivotToMalletMarker_x,PivotToMalletMarker_y,PivotToMalletMarker_z,MalletMarkerToHammerHead_x,MalletMarkerToHammerHead_y,MalletMarkerToHammerHead_z,IntrodMarkerToIntroHead_x,IntrodMarkerToIntroHead_y,IntrodMarkerToIntroHead_z,SmallMarkerSize,QuadMarkerSize
Description,Length of 3d printed add-on and shaft attachment,,Height,"in camera frame , z is depth",,,,,,,,
Value,,,,,,,,,,,,
